TITLE Final Program
PAGE 80,160
;
;	Author:	Brennan Toles
;
;
CR	EQU	0DH
LF	EQU	0AH
EOT	EQU '$'
SPACE EQU ' '
PLUS EQU '+'
MINUS EQU '-'
MULT EQU '*'
DIVI EQU '/'
;
	JMP START
;
PROMPT DB "Please enter your operation: ", CR, LF, EOT
CHECK1 DB "checkl", CR, LF, EOT

INPUT DB 12, ?, 10 DUP ?
ANUM1 DB 3 DUP ?
ANUM2 DB 3 DUP ?
BNUM1 DB 0
BNUM2 DB 0
OP DB ?
ANSWER DW 0

NUMBYTES DB 0
OPERAND DB 0

ADDITION:
	;POINT TO NEXT OPERAND
	ADD DI, 2
	JMP READ
	
SUBTRACT:
	;POINT TO NEXT OPERAND
	ADD DI, 2
	JMP READ
	
MULTIPLY:
	;POINT TO NEXT OPERAND
	ADD DI, 2
	JMP READ

DIVIDE:
	;POINT TO NEXT OPERAND
	ADD DI, 2
	JMP READ

START:
	LEA DX, PROMPT
	MOV AH, 09H
	INT 21H
	
	MOV AH, 0AH
	MOV DX, OFFSET INPUT
	INT 21H
	
	; POINT TO INPUT
	LEA DI, INPUT+2
	; SET NUMBER OF BYTES TO ZERO
	MOV CL, 0
	
READ:
	;IF SPACE, FIRST NUMBER IS DONE
	CMP DI, SPACE
	JE READNUM
	
	;COUNT SIZE OF OPERAND
	
	;INCREASE NUMBER OF BYTES FOUND
	INC CL
	;MOVE POINTER FORWARD
	INC DI
	JMP READ

READNUM:
	INC OPERAND

	LEA SI, CL
	CMP SI, 02
	JL COMPUTE1
	JE COMPUTE2
	JG COMPUTE3
	
READOP:

	MOV SI, PLUS
	CMP DI, SI
	JE ADDITION
	
	MOV SI, MINUS
	CMP DI, SI
	JE SUBTRACT
	
	MOV SI, MULT
	CMP DI, SI
	JE MULTIPLY
	
	MOV SI, DIVI
	CMP DI, SI
	JE DIVIDE
	
	CMP SI, SPACE
	JE READ

COMPUTE1:
	;RESET BYTE COUNTER
	MOV CL, 0
	
	LEA SI, ANUM1
	MOV SI, 0
	MOV [SI+2], [DI-1]
	
	;CONVERT TO BINARY
	CALL ASCBIN8
	
	;SAVE BINARY
	CMP OPERAND, 1
	JE SAVE1
	CMP OPERAND, 2
	JE SAVE2
	
	LEA DX, CHECK1
	MOV AH, 09H
	INT 21H
	
COMPUTE3:
	;RESET BYTE COUNTER
	MOV CL, 0
	
	LEA SI, ANUM1
	MOV [SI], [DI-3]
	MOV [SI+1], [DI-2]
	MOV [SI+2], [DI-1]
	
	;CONVERT 1S TO BINARY
	CALL ASCBIN8
	
	;SAVE BINARY
	CMP OPERAND, 1
	JE SAVE1
	CMP OPERAND, 2
	JE SAVE2

COMPUTE2:
	;RESET BYTE COUNTER
	MOV CL, 0
	
	LEA SI, ANUM1
	MOV SI, 0
	MOV [SI+1], [DI-2]
	MOV [SI+2], [DI-1]
	
	;CONVERT TO BINARY
	CALL ASCBIN8
	
	;SAVE BINARY
	CMP OPERAND, 1
	JE SAVE1
	CMP OPERAND, 2
	JE SAVE2

SAVE1:
	MOV BNUM1, AL
	
	;POINT TO OPERATOR
	INC DI
	JMP READOP
SAVE2:
	MOV BNUM2, AL
	
	INC DI
	
	LEA DX, CHECK1
	MOV AH, 09H
	INT 21H
	
EXIT:

	MOV AX, 4C00H
	INT 21H

;***********************************************************************************************
;       Subroutine ASCBIN8
;
;       A subroutine to convert 3 bytes of ASCII to 8 bit binary
;
;       Note: This version of the subroutine does not perform any
;       error testing. It assumes the input values are value ASCII
;       characters representing values between 0 and 255 decimal.
;       A separate subroutine could perform the validity tests.
;
;       ENTRY:  SI points to a 3 byte ASCII buffer
;               DI is used internally
;       EXIT:   AL holds the 8 bit converted value
;               DI preserved
;       USE:    Input must be three bytes
;
ASCBIN8:
       	 PUSH	DI              	;save DI on entry
       	 LEA        	DI, MULT1  	;point to placeholder values
       	 SUB       	B[SI],30H      	;remove ASCII bias from numbers
       	 SUB       	B[SI+1],30H
       	 SUB       	B[SI+2],30H
       	 MOV      	CX,3            	;initialize loop counter
       	 MOV      	BL,0            	;initialize sum register
AB1: 
      	 MOV      	AL,[SI]         	;get first byte
       	 MOV      	AH,0           	;clear upper byte of AX
        	 MUL      	B[DI]          	;multiply by placeholder
       	 ADD      	BL,AL        	;save value
        	 INC        	DI              	;point to next place holder
        	 INC        	SI             	;point to next byte
      	 LOOP    	AB1
      	 MOV      	AL,BL          	 ;place sum into output register
       	 POP       	DI            	 	;restore DI
       	 RET
MULT1        DB          100,10,1
;
;********************************************************************************************S
