TITLE Program 3
PAGE 60,132
;
;	Bubble sort of a 20 character array
;
CR	EQU	0DH
LF	EQU	0AH
EOT	EQU '$'
;
	JMP START
;
PROMPT DB CR, LF, "Please enter 20 characters to be sorted:  ", EOT
ARRAY DB 20, ?, 20 DUP ?

START:
	; ask user for 20 characters
	LEA DX, PROMPT
	MOV AH, 09H
	INT 21H
	
	; get the 20 characters into the array
	MOV AH, 0AH
	MOV DX, OFFSET ARRAY
	INT 21H
	
	LEA CX, ARRAY+1	;	set counter to number of items in array
	DEC CX				; 	set to n-1

	LEA DX, CR, LF, ARRAY
	MOV AH, 09H
	INT 21H
	
	CALL BUBBLE_SORT

	MOV AX, 4C00H
	INT 21H
;----------------------------------------------
;	Bubble Sort Subroutine
;	SI must point to the Array, CX contains Array size
BUBBLE_SORT:

; outer loop of n-1 iterations
OUTER:
	LEA SI, ARRAY		; point to the first array item
	
	LEA DI, ARRAY		
	INC DI			; point to the second

	LEA BX, CX		; set the loop counter to CX (n-1)
	
INNER:
	MOV DH, [SI]	; set first item as compare value

	CMP DH, [DI]		; compare items
	
	JB NOSWAP		; if CF = 1 then do not swap
	
	XCHG DH, [DI]	; swap the temp value and second value
	
	MOV [SI], DH	; set the second value equal to the new temp value
	
NOSWAP:
	INC SI			; increment pointers
	INC DI
	
	DEC BX			; decrement inner loop
	
	JNZ INNER		; continue inner loop if not zero
	
	LOOP OUTER		; decrement outer loop

	RET				; exit subroutine
	
