A86 V4.02 assembly of program4.COM                            2016-04-20  18:08
Program 4                                                     Page 1
Source: program4.asm                                        

  Begin Source: program4.asm
    1                             TITLE Program 4
    2                             PAGE 80,160
    3                             ;
    4                             ;       Author: Brennan Toles
    5                             ;
    6                             ;
    7 = : 000D                    CR      EQU     0DH
    8 = : 000A                    LF      EQU     0AH
    9 = : 0024                    EOT     EQU '$'
   10 = : 0020                    SPACE EQU ' '
   11                             ;
   12 0100  E9 7B 02                      JMP START
   13                             ;
   14 0103  0D 0A 54 68 65 20     RULES DB CR, LF, "The rules are simple.  You will have 3 chances", CR, LF, "to guess my number.  If you fail to do so I take 
      0109  72 75 6C 65 73 20          your money.", EOT
   15 0172  0D 0A 50 6C 65 61     PROMPT DB CR, LF, "Please enter a number between 0 and 9:  ", EOT
   16 019D  0D 0A 59 6F 75 72     PROMPTH DB CR, LF, "Your guess was too high, guess again:  ", EOT
   17 01C7  0D 0A 59 6F 75 72     PROMPTL DB CR, LF, "Your guess was too low, guess again:  ", EOT
   18 01F0  0D 0A 59 6F 75 20     WIN1 DB CR, LF, "You WIN 25!", EOT
   19 01FE  0D 0A 59 6F 75 20     WIN2 DB CR, LF, "You WIN 10!", EOT
   20 020C  0D 0A 59 6F 75 20     WIN3 DB CR, LF, "You WIN 5!", EOT
   21 0219  0D 0A 59 4F 55 20     LOSE DB CR, LF, "YOU LOSE! HA HA HA HA", EOT
   22 0231  0D 0A 50 6C 61 79     AGAIN DB CR, LF, "Play again? (Y\N):    ", EOT
   23                             
   24 0247  0D 0A 52 4E 44 20     SCORE DB CR, LF, "RND  DN  G1 G2 G3 WIN", CR, LF, EOT
   25                             
   26 0261  30                    ZERO DB '0'
   27 0262  31                    ONE DB '1'
   28 0263  32                    TWO DB '2'
   29 0264  35                    FIVE DB '5'
   30                             
   31 0265  01                    GUESSNUM DB 1
   32 0266  00                    RNDNUM DB ?
   33 0267  00                    TOASCII DB ?
   34 0268  20 20 20 20 20 20     OBUF DB 210 DUP SPACE, EOT
   35 033B  02 00 00 00           RESPONSE DB 2, ?, 2 DUP ?
   36 033F  02 00 00 00           GUESS DB 2, ?, 2 DUP ?
   37                             
   38                             ; HERE DUE TO 128 BIT JUMP LIMIT
   39                             NEXTROUND:
   40                                     ;WRITE CARRIAGE AND LINE FEED
   41 0343  B4 0D                         MOV AH, CR
   42 0345  88 A4 7B 02                   MOV OBUF[SI+19], AH
   43                             
   44 0349  B4 0A                         MOV AH, LF
   45 034B  88 A4 7C 02                   MOV OBUF[SI+20], AH
   46                             
   47                                     ;INCREMENT POINTER
   48 034F  83 C6 15                      ADD SI, 21
   49                             REPROMPT:
   50                                     ;PLAY AGAIN?
   51 0352  BA 31 02                      LEA DX, AGAIN
   52 0355  B4 09                         MOV AH, 09H
   53 0357  CD 21                         INT 21H
   54                             
   55 0359  B4 0A                         MOV AH, 0AH             ; get response
   56 035B  BA 3B 03                      MOV DX, OFFSET RESPONSE
   57 035E  CD 21                         INT 21H
   58                             
   59                                     ; JUMP TO START, PLAY AGAIN
   60 0360  80 3E 3D 03 59                CMP [RESPONSE+2], 59H ;Y
   61 0365  74 26                         JE NEXT
   62 0367  80 3E 3D 03 79                CMP [RESPONSE+2], 79H ;y
   63 036C  74 1F                         JE NEXT
   64 036E  80 3E 3D 03 4E                CMP [RESPONSE+2], 4EH ;N
   65 0373  74 75                         JE EXIT
   66 0375  80 3E 3D 03 6E                CMP [RESPONSE+2], 6EH ;n
   67 037A  74 6E                         JE EXIT
   68                             
   69 037C  EB D4                         JMP REPROMPT
A86 V4.02 assembly of program4.COM                                                                                                             2016-04-20  18:08
Program 4                                                                                                                                      Page 2
Source: program4.asm                                        

   72                             START:
   73 037E  C6 06 66 02 00                MOV RNDNUM, 0
   74 0383  BE 00 00                      MOV SI, 0
   75                                     ; DISPLAY RULES
   76 0386  BA 03 01                      LEA DX, RULES
   77 0389  B4 09                         MOV AH, 09H
   78 038B  CD 21                         INT 21H
   79                             
   80                             NEXT:
   81                             
   82 038D  B3 0A                         MOV BL, 10
   83                                     ; GET DEALER NUMBER
   84 038F  B4 2C                         MOV AH, 2CH
   85 0391  CD 21                         INT 21H
   86 0393  8A C2                         MOV AL, DL
   87 0395  B4 00                         MOV AH, 0
   88 0397  F6 F3                         DIV BL
   89                             
   90                                     ; SAVE DEALER NUMBER
   91 0399  88 C1                         MOV CL, AL
   92 039B  04 30                         ADD AL, 30H
   93                             
   94                                     ; write dealer number
   95 039D  88 84 6D 02                   MOV OBUF[SI+5], AL
   96                             
   97 03A1  C6 06 65 02 01                MOV GUESSNUM, 1
   98 03A6  FE 06 66 02                   INC RNDNUM
   99                             
  100 03AA  8A 26 66 02                   MOV AH, RNDNUM
  101 03AE  80 C4 30                      ADD AH, 30H
  102                             
  103                                     ;WRITE ROUND NUMBER
  104 03B1  88 A4 69 02                   MOV OBUF[SI+1], AH
  105                             
  106                                     ;GET GUESS
  107 03B5  BA 72 01                      LEA DX, PROMPT  ;guess prompt
  108 03B8  B4 09                         MOV AH, 09H
  109 03BA  CD 21                         INT 21H
  110                             
  111                             MAIN:
  112 03BC  B4 0A                         MOV AH, 0AH             ; save guess
  113 03BE  BA 3F 03                      MOV DX, OFFSET GUESS
  114 03C1  CD 21                         INT 21H
  115                             
  116                                     ; CONVERT TO BINARY
  117 03C3  80 2E 41 03 30                SUB [GUESS+2], 30H
  118 03C8  8A 1E 41 03                   MOV BL, GUESS+2
  119                             
  120                                     ;CONVERT BACK TO ASCII FOR OUTPUT
  121 03CC  80 06 41 03 30                ADD [GUESS+2], 30H
  122 03D1  8A 16 41 03                   MOV DL, GUESS+2
  123                             
  124 03D5  80 3E 65 02 01                CMP GUESSNUM, 1
  125 03DA  74 27                         JE GUESS1
  126                             
  127                                     ; JUMP TO GUESS 2
  128 03DC  80 3E 65 02 02                CMP GUESSNUM, 2
  129 03E1  74 30                         JE GUESS2
  130                             
  131                                     ; JUMP TO GUESS 3
  132 03E3  80 3E 65 02 03                CMP GUESSNUM, 3
  133 03E8  74 39                         JE GUESS3
  134                             
  135                             EXIT:
  136                                     ; COMPLETE OUTPUT
  137 03EA  B4 24                         MOV AH, EOT
  138 03EC  88 A4 7D 02                   MOV OBUF[SI+21], AH
  139                             
  140 03F0  BA 47 02                      LEA DX, SCORE
  141 03F3  B4 09                         MOV AH, 09H
  142 03F5  CD 21                         INT 21H
A86 V4.02 assembly of program4.COM                                                                                                             2016-04-20  18:08
Program 4                                                                                                                                      Page 3
Source: program4.asm                                        

  144 03F7  BA 68 02                      LEA DX, OBUF
  145 03FA  B4 09                         MOV AH, 09H
  146 03FC  CD 21                         INT 21H
  147                             
  148 03FE  B8 00 4C                      MOV AX, 4C00H
  149 0401  CD 21                         INT 21H
  150                             
  151                             
  152                             GUESS1:
  153 0403  FE 06 65 02                   INC GUESSNUM
  154                                     ;WRITE GUESS 1
  155 0407  88 94 71 02                   MOV OBUF[SI+9], DL
  156                             
  157 040B  38 CB                         CMP BL, CL
  158                             
  159 040D  74 46                         JE WIN25
  160 040F  77 30                         JA HIGHER
  161 0411  72 38                         JB LOWER
  162                             
  163                             GUESS2:
  164 0413  FE 06 65 02                   INC GUESSNUM
  165                                     ;WRITE GUESS 2
  166 0417  88 94 74 02                   MOV OBUF[SI+12], DL
  167                             
  168 041B  38 CB                         CMP BL, CL
  169                             
  170 041D  74 50                         JE WIN10
  171 041F  77 20                         JA HIGHER
  172 0421  72 28                         JB LOWER
  173                             
  174                             GUESS3:
  175 0423  FE 06 65 02                   INC GUESSNUM
  176                                     ;WRITE GUESS 3
  177 0427  88 94 77 02                   MOV OBUF[SI+15], DL
  178                             
  179 042B  38 CB                         CMP BL, CL
  180                             
  181 042D  74 5A                         JE WIN5
  182                             
  183                                     ;output
  184 042F  BA 19 02                      LEA DX, LOSE
  185 0432  B4 09                         MOV AH, 09H
  186 0434  CD 21                         INT 21H
  187                             
  188                                     ;WRITE OBUF WINNINGS OF 0
  189 0436  8A 26 61 02                   MOV AH, ZERO
  190 043A  88 A4 7A 02                   MOV OBUF[SI+18], AH
  191                             
  192 043E  E9 02 FF                      JMP NEXTROUND
  193                             
  194                             HIGHER:
  195 0441  BA 9D 01                      LEA DX, PROMPTH
  196 0444  B4 09                         MOV AH, 09H
  197 0446  CD 21                         INT 21H
  198                             
  199 0448  E9 71 FF                      JMP MAIN
  200                             
  201                             LOWER:
  202 044B  BA C7 01                      LEA DX, PROMPTL
  203 044E  B4 09                         MOV AH, 09H
  204 0450  CD 21                         INT 21H
  205                             
  206 0452  E9 67 FF                      JMP MAIN
  207                             
  208                             WIN25:
  209 0455  BA F0 01                      LEA DX, WIN1
  210 0458  B4 09                         MOV AH, 09H
  211 045A  CD 21                         INT 21H
  212                             
  213                                     ;WRITE OBUF WINNINGS OF 25
  214 045C  8A 26 63 02                   MOV AH, TWO
  215 0460  88 A4 79 02                   MOV OBUF[SI+17], AH
  216 0464  8A 26 64 02                   MOV AH, FIVE
  217 0468  88 A4 7A 02                   MOV OBUF[SI+18], AH
A86 V4.02 assembly of program4.COM                                                                                                             2016-04-20  18:08
Program 4                                                                                                                                      Page 4
Source: program4.asm                                        

  219 046C  E9 D4 FE                      JMP NEXTROUND
  220                             
  221                             WIN10:
  222 046F  BA FE 01                      LEA DX, WIN2
  223 0472  B4 09                         MOV AH, 09H
  224 0474  CD 21                         INT 21H
  225                             
  226                                     ;WRITE OBUF WINNINGS OF 10
  227 0476  8A 26 62 02                   MOV AH, ONE
  228 047A  88 A4 79 02                   MOV OBUF[SI+17], AH
  229 047E  8A 26 61 02                   MOV AH, ZERO
  230 0482  88 A4 7A 02                   MOV OBUF[SI+18], AH
  231                             
  232 0486  E9 BA FE                      JMP NEXTROUND
  233                             
  234                             WIN5:
  235 0489  BA 0C 02                      LEA DX, WIN3
  236 048C  B4 09                         MOV AH, 09H
  237 048E  CD 21                         INT 21H
  238                             
  239                                     ;WRITE OBUF WINNINGS OF 5
  240 0490  8A 26 64 02                   MOV AH, FIVE
  241 0494  88 A4 7A 02                   MOV OBUF[SI+18], AH
  242                             
  243 0498  E9 A8 FE                      JMP NEXTROUND
